1,88.564
2,-776.35
3,-494.77
4,447.23
5,-1682.6
6,-1131.5
7,-539.81
8,-217.2
9,191.9
10,-181.47
11,598.57
12,297.8
13,83.926
14,839.11
15,391.52
16,1878.1
17,2635
18,2870.1
19,2908.6
20,4156.6
21,3000.8
22,3849.8
23,6279.6
24,4668.9
25,4053.8
26,3403.3
27,3262
28,2473.6
29,3939.9
30,2477.5
31,2604
32,2114.9
33,1731.1
34,-157.3
35,670.28
36,331.45
37,913.56
38,1213.9
39,1320.9
40,206.18
41,294.27
42,-677.73
43,52.809
44,-483.37
45,1204.9
46,-412.34
47,-1003.9
48,-208.85
49,-1475.8
50,-1286.1
51,-2030.2
52,-2219.8
53,-805.86
54,-3209.1
55,-2351.8
56,-1932.2
57,-2008.7
58,-1326.7
59,-1767.5
60,-1514.9
61,-175.4
62,-242.47
63,7.734
64,-917.16
65,-644.65
66,241.76
67,-717.2
68,-1107.4
69,303.99
70,-230.8
71,-81.67
72,138.16
73,-379.16
74,66.798
75,83.298
76,497.97
77,2432
78,1143
79,1988.5
80,1219.9
81,1312.1
82,1734.4
83,2532.4
84,2237
85,3568.8
86,2958.8
87,2286.6
88,2876.8
89,1436.2
90,1577.9
91,675.88
92,502.21
93,432.94
94,997.83
95,-91.085
96,1630.5
97,512.24
98,471
99,251.36
100,-1077.2
