1,11389
2,11159
3,11249
4,12539
5,11070
6,11125
7,11539
8,11749
9,12292
10,11711
11,12620
12,11800
13,11828
14,12631
15,12056
16,13446
17,13920
18,14554
19,16062
20,16742
21,15178
22,16342
23,18504
24,17369
25,16671
26,15748
27,15778
28,15134
29,16313
30,14974
31,15351
32,14380
33,14290
34,12541
35,13384
36,13271
37,13519
38,13828
39,13189
40,13188
41,12780
42,12794
43,13291
44,12910
45,14370
46,12534
47,12586
48,12959
49,12223
50,12135
51,12177
52,12337
53,12482
54,11198
55,12263
56,12167
57,12035
58,12638
59,12354
60,12676
61,12679
62,12810
63,12607
64,12164
65,12824
66,12746
67,12235
68,12049
69,12691
70,11815
71,12148
72,12548
73,12093
74,12410
75,12209
76,12603
77,14397
78,13054
79,13648
80,12873
81,12702
82,13174
83,14067
84,14579
85,15133
86,14888
87,13898
88,14636
89,13465
90,13280
91,12233
92,12022
93,12840
94,12923
95,12353
96,13464
97,12629
98,12622
99,12643
100,11618
